digraph {
  node[shape="box", style="rounded"]
     start; end;
  node[shape="parallelogram", style=""]
    decrement
    get_line
  node[shape="diamond", style=""]
    is_block_close
    previous_lines
    indent_matches_opening

  start -> fold_level -> is_block_close

  is_block_close -> end [label="no"]
  is_block_close -> previous_lines [label="yes"]

  previous_lines -> end [label="no"]
  previous_lines -> get_line [label="yes"]

  get_line -> indent_matches_opening [label="yes"]

  indent_matches_opening -> previous_lines [label="no"]
  indent_matches_opening -> decrement [label="yes"]

  decrement -> end

  indent_matches_opening [
    label="Indent matches closing line\nand line opens swagger block"
  ]

  fold_level [
    label="fold level = n"
  ]

  decrement [
    label="fold level -= 1"
  ]

  is_block_close [
    label=">=1 swagger blocks open\nand line closes Elixir block?"
  ]

  previous_lines [
    label="Previous lines?"
  ]

  get_line [
    label="Get previous line"
  ]
}
